{
    "cards": [
      {
        "id": 1,
        "title": "Weather",
        "src": "/assets/images/weather.svg",
        "alt": "Meteo"
      },
      {
          "id": 2,
          "title": "News",
          "src": "/assets/images/newspaper.svg",
          "alt": "News"
      },
      {
        "id": 3,
        "title": "Messages",
        "src": "/assets/images/chat.svg",
        "alt": "To do"
      },
      {
          "id": 4,
          "title": "Images",
          "src": "/assets/images/photo.svg",
          "alt": "To do"
      }
    ]
  }
  